[
    {
        "particle": "muon",
        "resonance": "Z",
        "era": "Run2016",
        "subEra": "Run2016B",
        "probe": "generalTracks",
        "dataTier": "AOD",
        "parquet": ["/cms/muon_pog/parquet/muon/Z/Run2016/AOD/Run2016B/tnp.parquet"],
        "root": ["/cms/muon_pog/root/muon/Z/Run2016/AOD/Run2016B/*.root"],
        "treename": "muon/Events",
        "luminosity": 5.933,
        "version": 1
    },
    {
        "particle": "muon",
        "resonance": "Z",
        "era": "Run2016",
        "subEra": "Run2016C",
        "probe": "generalTracks",
        "dataTier": "AOD",
        "parquet": ["/cms/muon_pog/parquet/muon/Z/Run2016/AOD/Run2016C/tnp.parquet"],
        "root": ["/cms/muon_pog/root/muon/Z/Run2016/AOD/Run2016C/*.root"],
        "treename": "muon/Events",
        "luminosity": 2.646,
        "version": 1
    },
    {
        "particle": "muon",
        "resonance": "Z",
        "era": "Run2016",
        "subEra": "Run2016D",
        "probe": "generalTracks",
        "dataTier": "AOD",
        "parquet": ["/cms/muon_pog/parquet/muon/Z/Run2016/AOD/Run2016D/tnp.parquet"],
        "root": ["/cms/muon_pog/root/muon/Z/Run2016/AOD/Run2016D/*.root"],
        "treename": "muon/Events",
        "luminosity": 4.353,
        "version": 1
    },
    {
        "particle": "muon",
        "resonance": "Z",
        "era": "Run2016",
        "subEra": "Run2016E",
        "probe": "generalTracks",
        "dataTier": "AOD",
        "parquet": ["/cms/muon_pog/parquet/muon/Z/Run2016/AOD/Run2016E/tnp.parquet"],
        "root": ["/cms/muon_pog/root/muon/Z/Run2016/AOD/Run2016E/*.root"],
        "treename": "muon/Events",
        "luminosity": 4.117,
        "version": 1
    },
    {
        "particle": "muon",
        "resonance": "Z",
        "era": "Run2016",
        "subEra": "Run2016F",
        "probe": "generalTracks",
        "dataTier": "AOD",
        "parquet": ["/cms/muon_pog/parquet/muon/Z/Run2016/AOD/Run2016F/tnp.parquet"],
        "root": ["/cms/muon_pog/root/muon/Z/Run2016/AOD/Run2016F/*.root"],
        "treename": "muon/Events",
        "luminosity": 3.186,
        "version": 1
    },
    {
        "particle": "muon",
        "resonance": "Z",
        "era": "Run2016",
        "subEra": "Run2016G",
        "probe": "generalTracks",
        "dataTier": "AOD",
        "parquet": ["/cms/muon_pog/parquet/muon/Z/Run2016/AOD/Run2016G/tnp.parquet"],
        "root": ["/cms/muon_pog/root/muon/Z/Run2016/AOD/Run2016G/*.root"],
        "treename": "muon/Events",
        "luminosity": 7.721,
        "version": 1
    },
    {
        "particle": "muon",
        "resonance": "Z",
        "era": "Run2016",
        "subEra": "Run2016H",
        "probe": "generalTracks",
        "dataTier": "AOD",
        "parquet": ["/cms/muon_pog/parquet/muon/Z/Run2016/AOD/Run2016H/tnp.parquet"],
        "root": ["/cms/muon_pog/root/muon/Z/Run2016/AOD/Run2016H/*.root"],
        "treename": "muon/Events",
        "luminosity": 8.857,
        "version": 1
    },
    {
        "particle": "muon",
        "resonance": "Z",
        "era": "Run2016",
        "subEra": "DY_madgraph",
        "probe": "generalTracks",
        "dataTier": "AOD",
        "parquet": ["/cms/muon_pog/parquet/muon/Z/Run2016/AOD/DY_madgraph/tnp.parquet"],
        "root": ["/cms/muon_pog/root/muon/Z/Run2016/AOD/DY_madgraph/*.root"],
        "treename": "muon/Events",
        "luminosity": -1,
        "version": 1
    },
    {
        "particle": "muon",
        "resonance": "Z",
        "era": "Run2017",
        "subEra": "Run2017B",
        "probe": "generalTracks",
        "dataTier": "AOD",
        "parquet": ["/cms/muon_pog/parquet/muon/Z/Run2017/AOD/Run2017B/tnp.parquet"],
        "root": ["/cms/muon_pog/root/muon/Z/Run2017/AOD/Run2017B/*.root"],
        "treename": "muon/Events",
        "luminosity": 4.823,
        "version": 1
    },
    {
        "particle": "muon",
        "resonance": "Z",
        "era": "Run2017",
        "subEra": "Run2017C",
        "probe": "generalTracks",
        "dataTier": "AOD",
        "parquet": ["/cms/muon_pog/parquet/muon/Z/Run2017/AOD/Run2017C/tnp.parquet"],
        "root": ["/cms/muon_pog/root/muon/Z/Run2017/AOD/Run2017C/*.root"],
        "treename": "muon/Events",
        "luminosity": 9.664,
        "version": 1
    },
    {
        "particle": "muon",
        "resonance": "Z",
        "era": "Run2017",
        "subEra": "Run2017D",
        "probe": "generalTracks",
        "dataTier": "AOD",
        "parquet": ["/cms/muon_pog/parquet/muon/Z/Run2017/AOD/Run2017D/tnp.parquet"],
        "root": ["/cms/muon_pog/root/muon/Z/Run2017/AOD/Run2017D/*.root"],
        "treename": "muon/Events",
        "luminosity": 4.252,
        "version": 1
    },
    {
        "particle": "muon",
        "resonance": "Z",
        "era": "Run2017",
        "subEra": "Run2017E",
        "probe": "generalTracks",
        "dataTier": "AOD",
        "parquet": ["/cms/muon_pog/parquet/muon/Z/Run2017/AOD/Run2017E/tnp.parquet"],
        "root": ["/cms/muon_pog/root/muon/Z/Run2017/AOD/Run2017E/*.root"],
        "treename": "muon/Events",
        "luminosity": 9.278,
        "version": 1
    },
    {
        "particle": "muon",
        "resonance": "Z",
        "era": "Run2017",
        "subEra": "Run2017F",
        "probe": "generalTracks",
        "dataTier": "AOD",
        "parquet": ["/cms/muon_pog/parquet/muon/Z/Run2017/AOD/Run2017F/tnp.parquet"],
        "root": ["/cms/muon_pog/root/muon/Z/Run2017/AOD/Run2017F/*.root"],
        "treename": "muon/Events",
        "luminosity": 13.540,
        "version": 1
    },
    {
        "particle": "muon",
        "resonance": "Z",
        "era": "Run2017",
        "subEra": "DY_madgraph",
        "probe": "generalTracks",
        "dataTier": "AOD",
        "parquet": ["/cms/muon_pog/parquet/muon/Z/Run2017/AOD/DY_madgraph/tnp.parquet"],
        "root": ["/cms/muon_pog/root/muon/Z/Run2017/AOD/DY_madgraph/*.root"],
        "treename": "muon/Events",
        "luminosity": -1,
        "version": 1
    },
    {
        "particle": "muon",
        "resonance": "Z",
        "era": "Run2018",
        "subEra": "Run2018A",
        "probe": "generalTracks",
        "dataTier": "AOD",
        "parquet": ["/cms/muon_pog/parquet/muon/Z/Run2018/AOD/Run2018A/tnp.parquet"],
        "root": ["/cms/muon_pog/root/muon/Z/Run2018/AOD/Run2018A/*.root"],
        "treename": "muon/Events",
        "luminosity": 14.00,
        "version": 1
    },
    {
        "particle": "muon",
        "resonance": "Z",
        "era": "Run2018",
        "subEra": "Run2018B",
        "probe": "generalTracks",
        "dataTier": "AOD",
        "parquet": ["/cms/muon_pog/parquet/muon/Z/Run2018/AOD/Run2018B/tnp.parquet"],
        "root": ["/cms/muon_pog/root/muon/Z/Run2018/AOD/Run2018B/*.root"],
        "treename": "muon/Events",
        "luminosity": 7.10,
        "version": 1
    },
    {
        "particle": "muon",
        "resonance": "Z",
        "era": "Run2018",
        "subEra": "Run2018C",
        "probe": "generalTracks",
        "dataTier": "AOD",
        "parquet": ["/cms/muon_pog/parquet/muon/Z/Run2018/AOD/Run2018C/tnp.parquet"],
        "root": ["/cms/muon_pog/root/muon/Z/Run2018/AOD/Run2018C/*.root"],
        "treename": "muon/Events",
        "luminosity": 6.94,
        "version": 1
    },
    {
        "particle": "muon",
        "resonance": "Z",
        "era": "Run2018",
        "subEra": "Run2018D",
        "probe": "generalTracks",
        "dataTier": "AOD",
        "parquet": ["/cms/muon_pog/parquet/muon/Z/Run2018/AOD/Run2018D/tnp.parquet"],
        "root": ["/cms/muon_pog/root/muon/Z/Run2018/AOD/Run2018D/*.root"],
        "treename": "muon/Events",
        "luminosity": 31.93,
        "version": 1
    },
    {
        "particle": "muon",
        "resonance": "Z",
        "era": "Run2018",
        "subEra": "DY_madgraph",
        "probe": "generalTracks",
        "dataTier": "AOD",
        "parquet": ["/cms/muon_pog/parquet/muon/Z/Run2018/AOD/DY_madgraph/tnp.parquet"],
        "root": ["/cms/muon_pog/root/muon/Z/Run2018/AOD/DY_madgraph/*.root"],
        "treename": "muon/Events",
        "luminosity": -1,
        "version": 1
    },
    {
        "particle": "muon",
        "resonance": "Z",
        "era": "Run2016_UL_HIPM",
        "subEra": "Run2016B",
        "probe": "generalTracks",
        "dataTier": "MINIAOD",
        "parquet": ["/cms/muon_pog/parquet/muon/Z/Run2016_UL_HIPM_Jul23/MINIAOD/Run2016B/tnp.parquet"],
        "root": [""],
        "treename": "",
        "luminosity": 5.933,
        "version": 1
    },
    {
        "particle": "muon",
        "resonance": "Z",
        "era": "Run2016_UL_HIPM",
        "subEra": "Run2016C",
        "probe": "generalTracks",
        "dataTier": "MINIAOD",
        "parquet": ["/cms/muon_pog/parquet/muon/Z/Run2016_UL_HIPM_Jul23/MINIAOD/Run2016C/tnp.parquet"],
        "root": [""],
        "treename": "",
        "luminosity": 2.646,
        "version": 1
    },
    {
        "particle": "muon",
        "resonance": "Z",
        "era": "Run2016_UL_HIPM",
        "subEra": "Run2016D",
        "probe": "generalTracks",
        "dataTier": "MINIAOD",
        "parquet": ["/cms/muon_pog/parquet/muon/Z/Run2016_UL_HIPM_Jul23/MINIAOD/Run2016D/tnp.parquet"],
        "root": [""],
        "treename": "",
        "luminosity": 4.353,
        "version": 1
    },
    {
        "particle": "muon",
        "resonance": "Z",
        "era": "Run2016_UL_HIPM",
        "subEra": "Run2016E",
        "probe": "generalTracks",
        "dataTier": "MINIAOD",
        "parquet": ["/cms/muon_pog/parquet/muon/Z/Run2016_UL_HIPM_Jul23/MINIAOD/Run2016E/tnp.parquet"],
        "root": [""],
        "treename": "",
        "luminosity": 4.117,
        "version": 1
    },
    {
        "particle": "muon",
        "resonance": "Z",
        "era": "Run2016_UL_HIPM",
        "subEra": "Run2016F",
        "probe": "generalTracks",
        "dataTier": "MINIAOD",
        "parquet": ["/cms/muon_pog/parquet/muon/Z/Run2016_UL_HIPM_Jul23/MINIAOD/Run2016F/tnp.parquet"],
        "root": [""],
        "treename": "",
        "luminosity": 3.186,
        "version": 1
    },
    {
        "particle": "muon",
        "resonance": "Z",
        "era": "Run2016_UL_HIPM",
        "subEra": "DY_madgraph",
        "probe": "generalTracks",
        "dataTier": "MINIAOD",
        "parquet": ["/cms/muon_pog/parquet/muon/Z/Run2016_UL_HIPM_Jul23/MINIAOD/DY_madgraph/tnp.parquet"],
        "root": [""],
        "treename": "",
        "luminosity": -1,
        "version": 1
    },
    {
        "particle": "muon",
        "resonance": "Z",
        "era": "Run2016_UL_HIPM",
        "subEra": "DY_powheg",
        "probe": "generalTracks",
        "dataTier": "MINIAOD",
        "parquet": ["/cms/muon_pog/parquet/muon/Z/Run2016_UL_HIPM_Jul23/MINIAOD/DY_powheg/tnp.parquet"],
        "root": [""],
        "treename": "",
        "luminosity": -1,
        "version": 1
    },
    {   
        "particle": "muon",
        "resonance": "Z",
        "era": "Run2016_UL_HIPM",
        "subEra": "DY_MassBinned",
        "probe": "generalTracks",
        "dataTier": "MINIAOD",
        "parquet": ["/cms/muon_pog/parquet/muon/Z/Run2016_UL_HIPM_8Feb23/MINIAOD/DY_MassBinned/tnp.parquet"],
        "root": [""],
        "treename": "",
        "luminosity": -1,
        "version": 1
    },
    {
        "particle": "muon",
        "resonance": "Z",
        "era": "Run2016_UL",
        "subEra": "Run2016F",
        "probe": "generalTracks",
        "dataTier": "MINIAOD",
        "parquet": ["/cms/muon_pog/parquet/muon/Z/Run2016_UL_Jul23/MINIAOD/Run2016F/tnp.parquet"],
        "root": [""],
        "treename": "",
        "luminosity": 0,
        "version": 1
    },
    {
        "particle": "muon",
        "resonance": "Z",
        "era": "Run2016_UL",
        "subEra": "Run2016G",
        "probe": "generalTracks",
        "dataTier": "MINIAOD",
        "parquet": ["/cms/muon_pog/parquet/muon/Z/Run2016_UL_Jul23/MINIAOD/Run2016G/tnp.parquet"],
        "root": [""],
        "treename": "",
        "luminosity": 7.721,
        "version": 1
    },
    {
        "particle": "muon",
        "resonance": "Z",
        "era": "Run2016_UL",
        "subEra": "Run2016H",
        "probe": "generalTracks",
        "dataTier": "MINIAOD",
        "parquet": ["/cms/muon_pog/parquet/muon/Z/Run2016_UL_Jul23/MINIAOD/Run2016H/tnp.parquet"],
        "root": [""],
        "treename": "",
        "luminosity": 8.857,
        "version": 1
    },
    {
        "particle": "muon",
        "resonance": "Z",
        "era": "Run2016_UL",
        "subEra": "DY_madgraph",
        "probe": "generalTracks",
        "dataTier": "MINIAOD",
        "parquet": ["/cms/muon_pog/parquet/muon/Z/Run2016_UL_Jul23/MINIAOD/DY_madgraph/tnp.parquet"],
        "root": [""],
        "treename": "",
        "luminosity": -1,
        "version": 1
    },
    {
        "particle": "muon",
        "resonance": "Z",
        "era": "Run2016_UL",
        "subEra": "DY_powheg",
        "probe": "generalTracks",
        "dataTier": "MINIAOD",
        "parquet": ["/cms/muon_pog/parquet/muon/Z/Run2016_UL_Jul23/MINIAOD/DY_powheg/tnp.parquet"],
        "root": [""],
        "treename": "",
        "luminosity": -1,
        "version": 1
    },
    {
        "particle": "muon",
        "resonance": "Z",
        "era": "Run2016_UL",
        "subEra": "DY_MassBinned",
        "probe": "generalTracks",
        "dataTier": "MINIAOD",
        "parquet": ["/cms/muon_pog/parquet/muon/Z/Run2016_UL_8Feb23/MINIAOD/DY_MassBinned/tnp.parquet"],
        "root": [""],
        "treename": "",
        "luminosity": -1,
        "version": 1
    },
    {
        "particle": "muon",
        "resonance": "Z",
        "era": "Run2017_UL",
        "subEra": "Run2017B",
        "probe": "generalTracks",
        "dataTier": "MINIAOD",
        "parquet": ["/cms/muon_pog/parquet/muon/Z/Run2017_UL_Jul23/MINIAOD/Run2017B/tnp.parquet"],
        "root": [""],
        "treename": "",
        "luminosity": 4.823,
        "version": 1
    },
    {
        "particle": "muon",
        "resonance": "Z",
        "era": "Run2017_UL",
        "subEra": "Run2017C",
        "probe": "generalTracks",
        "dataTier": "MINIAOD",
        "parquet": ["/cms/muon_pog/parquet/muon/Z/Run2017_UL_Jul23/MINIAOD/Run2017C/tnp.parquet"],
        "root": [""],
        "treename": "",
        "luminosity": 9.664,
        "version": 1
    },
    {
        "particle": "muon",
        "resonance": "Z",
        "era": "Run2017_UL",
        "subEra": "Run2017D",
        "probe": "generalTracks",
        "dataTier": "MINIAOD",
        "parquet": ["/cms/muon_pog/parquet/muon/Z/Run2017_UL_Jul23/MINIAOD/Run2017D/tnp.parquet"],
        "root": [""],
        "treename": "",
        "luminosity": 4.252,
        "version": 1
    },
    {
        "particle": "muon",
        "resonance": "Z",
        "era": "Run2017_UL",
        "subEra": "Run2017E",
        "probe": "generalTracks",
        "dataTier": "MINIAOD",
        "parquet": ["/cms/muon_pog/parquet/muon/Z/Run2017_UL_Jul23/MINIAOD/Run2017E/tnp.parquet"],
        "root": [""],
        "treename": "",
        "luminosity": 9.278,
        "version": 1
    },
    {
        "particle": "muon",
        "resonance": "Z",
        "era": "Run2017_UL",
        "subEra": "Run2017F",
        "probe": "generalTracks",
        "dataTier": "MINIAOD",
        "parquet": ["/cms/muon_pog/parquet/muon/Z/Run2017_UL_Jul23/MINIAOD/Run2017F/tnp.parquet"],
        "root": [""],
        "treename": "",
        "luminosity": 13.540,
        "version": 1
    },
    {
        "particle": "muon",
        "resonance": "Z",
        "era": "Run2017_UL",
        "subEra": "DY_madgraph",
        "probe": "generalTracks",
        "dataTier": "MINIAOD",
        "parquet": ["/cms/muon_pog/parquet/muon/Z/Run2017_UL_Jul23/MINIAOD/DY_madgraph/tnp.parquet"],
        "root": [""],
        "treename": "",
        "luminosity": -1,
        "version": 1
    },
    {
        "particle": "muon",
        "resonance": "Z",
        "era": "Run2017_UL",
        "subEra": "DY_powheg",
        "probe": "generalTracks",
        "dataTier": "MINIAOD",
        "parquet": ["/cms/muon_pog/parquet/muon/Z/Run2017_UL_Jul23/MINIAOD/DY_powheg/tnp.parquet"],
        "root": [""],
        "treename": "",
        "luminosity": -1,
        "version": 1
    },
    {
        "particle": "muon",
        "resonance": "Z",
        "era": "Run2017_UL",
        "subEra": "DY_MassBinned",
        "probe": "generalTracks",
        "dataTier": "MINIAOD",
        "parquet": ["/cms/muon_pog/parquet/muon/Z/Run2017_UL_23Mar23/MINIAOD/DY_MassBinned/tnp.parquet"],
        "root": [""],
        "treename": "",
        "luminosity": -1,
        "version": 1
    },
    {
        "particle": "muon",
        "resonance": "Z",
        "era": "Run2018_UL",
        "subEra": "Run2018A",
        "probe": "generalTracks",
        "dataTier": "MINIAOD",
        "parquet": ["/cms/muon_pog/parquet/muon/Z/Run2018_UL_Jul23/MINIAOD/Run2018A/tnp.parquet"],
        "root": [""],
        "treename": "",
        "luminosity": 14.00,
        "version": 1
    },
    {
        "particle": "muon",
        "resonance": "Z",
        "era": "Run2018_UL",
        "subEra": "Run2018B",
        "probe": "generalTracks",
        "dataTier": "MINIAOD",
        "parquet": ["/cms/muon_pog/parquet/muon/Z/Run2018_UL_Jul23/MINIAOD/Run2018B/tnp.parquet"],
        "root": [""],
        "treename": "",
        "luminosity": 7.10,
        "version": 1
    },
    {
        "particle": "muon",
        "resonance": "Z",
        "era": "Run2018_UL",
        "subEra": "Run2018C",
        "probe": "generalTracks",
        "dataTier": "MINIAOD",
        "parquet": ["/cms/muon_pog/parquet/muon/Z/Run2018_UL_Jul23/MINIAOD/Run2018C/tnp.parquet"],
        "root": [""],
        "treename": "",
        "luminosity": 6.94,
        "version": 1
    },
    {
        "particle": "muon",
        "resonance": "Z",
        "era": "Run2018_UL",
        "subEra": "Run2018D",
        "probe": "generalTracks",
        "dataTier": "MINIAOD",
        "parquet": ["/cms/muon_pog/parquet/muon/Z/Run2018_UL_Jul23/MINIAOD/Run2018D/tnp.parquet"],
        "root": [""],
        "treename": "",
        "luminosity": 31.93,
        "version": 1
    },
    {
        "particle": "muon",
        "resonance": "Z",
        "era": "Run2018_UL",
        "subEra": "DY_madgraph",
        "probe": "generalTracks",
        "dataTier": "MINIAOD",
        "parquet": ["/cms/muon_pog/parquet/muon/Z/Run2018_UL_Jul23/MINIAOD/DY_madgraph/tnp.parquet"],
        "root": [""],
        "treename": "",
        "luminosity": -1,
        "version": 1
    },
    {
        "particle": "muon",
        "resonance": "Z",
        "era": "Run2018_UL",
        "subEra": "DY_powheg",
        "probe": "generalTracks",
        "dataTier": "MINIAOD",
        "parquet": ["/cms/muon_pog/parquet/muon/Z/Run2018_UL_Jul23/MINIAOD/DY_powheg/tnp.parquet"],
        "root": [""],
        "treename": "",
        "luminosity": -1,
        "version": 1
    },
    {
        "particle": "muon",
        "resonance": "Z",
        "era": "Run2018_UL",
        "subEra": "DY_acMCatNLO_PtZ-0To50",
        "probe": "generalTracks",
        "dataTier": "MINIAOD",
        "parquet": ["/cms/muon_pog/parquet/muon/Z/Run2018_UL_27Jul2023/MINIAOD/DY_acMCatNLO_PtZ-0To50/tnp.parquet"],
        "root": [""],
        "treename": "",
        "luminosity": 1485,
        "version": 1
    },
    {
        "particle": "muon",
        "resonance": "Z",
        "era": "Run2018_UL",
        "subEra": "DY_acMCatNLO_PtZ-50To100",
        "probe": "generalTracks",
        "dataTier": "MINIAOD",
        "parquet": ["/cms/muon_pog/parquet/muon/Z/Run2018_UL_27Jul2023/MINIAOD/DY_acMCatNLO_PtZ-50To100/tnp.parquet"],
        "root": [""],
        "treename": "",
        "luminosity": 354.3,
        "version": 1
    },
    {
        "particle": "muon",
        "resonance": "Z",
        "era": "Run2018_UL",
        "subEra": "DY_acMCatNLO_PtZ-100To250",
        "probe": "generalTracks",
        "dataTier": "MINIAOD",
        "parquet": ["/cms/muon_pog/parquet/muon/Z/Run2018_UL_27Jul2023/MINIAOD/DY_acMCatNLO_PtZ-100To250/tnp.parquet"],
        "root": [""],
        "treename": "",
        "luminosity": 83.12,
        "version": 1
    },
    {
        "particle": "muon",
        "resonance": "Z",
        "era": "Run2018_UL",
        "subEra": "DY_acMCatNLO_PtZ-250To400",
        "probe": "generalTracks",
        "dataTier": "MINIAOD",
        "parquet": ["/cms/muon_pog/parquet/muon/Z/Run2018_UL_27Jul2023/MINIAOD/DY_acMCatNLO_PtZ-250To400/tnp.parquet"],
        "root": [""],
        "treename": "",
        "luminosity": 3.047,
        "version": 1
    },
    {
        "particle": "muon",
        "resonance": "Z",
        "era": "Run2018_UL",
        "subEra": "DY_acMCatNLO_PtZ-400To650",
        "probe": "generalTracks",
        "dataTier": "MINIAOD",
        "parquet": ["/cms/muon_pog/parquet/muon/Z/Run2018_UL_27Jul2023/MINIAOD/DY_acMCatNLO_PtZ-400To650/tnp.parquet"],
        "root": [""],
        "treename": "",
        "luminosity": 0.3921,
        "version": 1
    },
    {
        "particle": "muon",
        "resonance": "Z",
        "era": "Run2018_UL",
        "subEra": "DY_acMCatNLO_PtZ-650ToInf",
        "probe": "generalTracks",
        "dataTier": "MINIAOD",
        "parquet": ["/cms/muon_pog/parquet/muon/Z/Run2018_UL_27Jul2023/MINIAOD/DY_acMCatNLO_PtZ-650ToInf/tnp.parquet"],
        "root": [""],
        "treename": "",
        "luminosity": 0.03636,
        "version": 1
    },
    {
        "particle": "muon",
        "resonance": "Z",
        "era": "Run2016_UL_HIPM_DM",
        "subEra": "Run2016B",
        "probe": "generalTracks",
        "dataTier": "MINIAOD",
        "parquet": ["/cms/muon_pog/parquet/muon/Z/Run2016_UL_HIPM/MINIAOD/Run2016B_DM/tnp.parquet"],
        "root": [""],
        "treename": "",
        "luminosity": 5.933,
        "version": 1
    },
    {
        "particle": "muon",
        "resonance": "Z",
        "era": "Run2016_UL_HIPM_DM",
        "subEra": "Run2016C",
        "probe": "generalTracks",
        "dataTier": "MINIAOD",
        "parquet": ["/cms/muon_pog/parquet/muon/Z/Run2016_UL_HIPM/MINIAOD/Run2016C_DM/tnp.parquet"],
        "root": [""],
        "treename": "",
        "luminosity": 2.646,
        "version": 1
    },
    {
        "particle": "muon",
        "resonance": "Z",
        "era": "Run2016_UL_HIPM_DM",
        "subEra": "Run2016D",
        "probe": "generalTracks",
        "dataTier": "MINIAOD",
        "parquet": ["/cms/muon_pog/parquet/muon/Z/Run2016_UL_HIPM/MINIAOD/Run2016D_DM/tnp.parquet"],
        "root": [""],
        "treename": "",
        "luminosity": 4.353,
        "version": 1
    },
    {
        "particle": "muon",
        "resonance": "Z",
        "era": "Run2016_UL_HIPM_DM",
        "subEra": "Run2016E",
        "probe": "generalTracks",
        "dataTier": "MINIAOD",
        "parquet": ["/cms/muon_pog/parquet/muon/Z/Run2016_UL_HIPM/MINIAOD/Run2016E_DM/tnp.parquet"],
        "root": [""],
        "treename": "",
        "luminosity": 4.117,
        "version": 1
    },
    {
        "particle": "muon",
        "resonance": "Z",
        "era": "Run2016_UL_HIPM_DM",
        "subEra": "Run2016F",
        "probe": "generalTracks",
        "dataTier": "MINIAOD",
        "parquet": ["/cms/muon_pog/parquet/muon/Z/Run2016_UL_HIPM/MINIAOD/Run2016F_DM/tnp.parquet"],
        "root": [""],
        "treename": "",
        "luminosity": 3.186,
        "version": 1
    },
    {
        "particle": "muon",
        "resonance": "Z",
        "era": "Run2016_UL_HIPM_DM",
        "subEra": "DY_madgraph",
        "probe": "generalTracks",
        "dataTier": "MINIAOD",
        "parquet": ["/cms/muon_pog/parquet/muon/Z/Run2016_UL_HIPM/MINIAOD/DY_madgraph/tnp.parquet"],
        "root": [""],
        "treename": "",
        "luminosity": -1,
        "version": 1
    },
    {
        "particle": "muon",
        "resonance": "Z",
        "era": "Run2016_UL_DM",
        "subEra": "Run2016F",
        "probe": "generalTracks",
        "dataTier": "MINIAOD",
        "parquet": ["/cms/muon_pog/parquet/muon/Z/Run2016_UL/MINIAOD/Run2016F_DM/tnp.parquet"],
        "root": [""],
        "treename": "",
        "luminosity": 0,
        "version": 1
    },
    {
        "particle": "muon",
        "resonance": "Z",
        "era": "Run2016_UL_DM",
        "subEra": "Run2016G",
        "probe": "generalTracks",
        "dataTier": "MINIAOD",
        "parquet": ["/cms/muon_pog/parquet/muon/Z/Run2016_UL/MINIAOD/Run2016G_DM/tnp.parquet"],
        "root": [""],
        "treename": "",
        "luminosity": 7.721,
        "version": 1
    },
    {
        "particle": "muon",
        "resonance": "Z",
        "era": "Run2016_UL_DM",
        "subEra": "Run2016H",
        "probe": "generalTracks",
        "dataTier": "MINIAOD",
        "parquet": ["/cms/muon_pog/parquet/muon/Z/Run2016_UL/MINIAOD/Run2016H_DM/tnp.parquet"],
        "root": [""],
        "treename": "",
        "luminosity": 8.857,
        "version": 1
    },
    {
        "particle": "muon",
        "resonance": "Z",
        "era": "Run2016_UL_DM",
        "subEra": "DY_madgraph",
        "probe": "generalTracks",
        "dataTier": "MINIAOD",
        "parquet": ["/cms/muon_pog/parquet/muon/Z/Run2016_UL/MINIAOD/DY_madgraph/tnp.parquet"],
        "root": [""],
        "treename": "",
        "luminosity": -1,
        "version": 1
    },
    {
        "particle": "muon",
        "resonance": "Z",
        "era": "Run2017_UL_DM",
        "subEra": "Run2017B",
        "probe": "generalTracks",
        "dataTier": "MINIAOD",
        "parquet": ["/cms/muon_pog/parquet/muon/Z/Run2017_UL/MINIAOD/Run2017B_DM/tnp.parquet"],
        "root": [""],
        "treename": "",
        "luminosity": 4.823,
        "version": 1
    },
    {
        "particle": "muon",
        "resonance": "Z",
        "era": "Run2017_UL_DM",
        "subEra": "Run2017C",
        "probe": "generalTracks",
        "dataTier": "MINIAOD",
        "parquet": ["/cms/muon_pog/parquet/muon/Z/Run2017_UL/MINIAOD/Run2017C_DM/tnp.parquet"],
        "root": [""],
        "treename": "",
        "luminosity": 9.664,
        "version": 1
    },
    {
        "particle": "muon",
        "resonance": "Z",
        "era": "Run2017_UL_DM",
        "subEra": "Run2017D",
        "probe": "generalTracks",
        "dataTier": "MINIAOD",
        "parquet": ["/cms/muon_pog/parquet/muon/Z/Run2017_UL/MINIAOD/Run2017D_DM/tnp.parquet"],
        "root": [""],
        "treename": "",
        "luminosity": 4.252,
        "version": 1
    },
    {
        "particle": "muon",
        "resonance": "Z",
        "era": "Run2017_UL_DM",
        "subEra": "Run2017E",
        "probe": "generalTracks",
        "dataTier": "MINIAOD",
        "parquet": ["/cms/muon_pog/parquet/muon/Z/Run2017_UL/MINIAOD/Run2017E_DM/tnp.parquet"],
        "root": [""],
        "treename": "",
        "luminosity": 9.278,
        "version": 1
    },
    {
        "particle": "muon",
        "resonance": "Z",
        "era": "Run2017_UL_DM",
        "subEra": "Run2017F",
        "probe": "generalTracks",
        "dataTier": "MINIAOD",
        "parquet": ["/cms/muon_pog/parquet/muon/Z/Run2017_UL/MINIAOD/Run2017F_DM/tnp.parquet"],
        "root": [""],
        "treename": "",
        "luminosity": 13.540,
        "version": 1
    },
    {
        "particle": "muon",
        "resonance": "Z",
        "era": "Run2017_UL_DM",
        "subEra": "DY_madgraph",
        "probe": "generalTracks",
        "dataTier": "MINIAOD",
        "parquet": ["/cms/muon_pog/parquet/muon/Z/Run2017_UL/MINIAOD/DY_madgraph/tnp.parquet"],
        "root": [""],
        "treename": "",
        "luminosity": -1,
        "version": 1
    },
    {
        "particle": "muon",
        "resonance": "Z",
        "era": "Run2018_UL_DM",
        "subEra": "Run2018A",
        "probe": "generalTracks",
        "dataTier": "MINIAOD",
        "parquet": ["/cms/muon_pog/parquet/muon/Z/Run2018_UL/MINIAOD/Run2018A_DM/tnp.parquet"],
        "root": [""],
        "treename": "",
        "luminosity": 14.00,
        "version": 1
    },
    {
        "particle": "muon",
        "resonance": "Z",
        "era": "Run2018_UL_DM",
        "subEra": "Run2018B",
        "probe": "generalTracks",
        "dataTier": "MINIAOD",
        "parquet": ["/cms/muon_pog/parquet/muon/Z/Run2018_UL/MINIAOD/Run2018B_DM/tnp.parquet"],
        "root": [""],
        "treename": "",
        "luminosity": 7.10,
        "version": 1
    },
    {
        "particle": "muon",
        "resonance": "Z",
        "era": "Run2018_UL_DM",
        "subEra": "Run2018C",
        "probe": "generalTracks",
        "dataTier": "MINIAOD",
        "parquet": ["/cms/muon_pog/parquet/muon/Z/Run2018_UL/MINIAOD/Run2018C_DM/tnp.parquet"],
        "root": [""],
        "treename": "",
        "luminosity": 6.94,
        "version": 1
    },
    {
        "particle": "muon",
        "resonance": "Z",
        "era": "Run2018_UL_DM",
        "subEra": "Run2018D",
        "probe": "generalTracks",
        "dataTier": "MINIAOD",
        "parquet": ["/cms/muon_pog/parquet/muon/Z/Run2018_UL/MINIAOD/Run2018D_DM/tnp.parquet"],
        "root": [""],
        "treename": "",
        "luminosity": 31.93,
        "version": 1
    },
    {
        "particle": "muon",
        "resonance": "Z",
        "era": "Run2018_UL_DM",
        "subEra": "DY_madgraph",
        "probe": "generalTracks",
        "dataTier": "MINIAOD",
        "parquet": ["/cms/muon_pog/parquet/muon/Z/Run2018_UL/MINIAOD/DY_madgraph/tnp.parquet"],
        "root": [""],
        "treename": "",
        "luminosity": -1,
        "version": 1
    },
    {
        "particle": "muon",
        "resonance": "Z",
        "era": "Run2022",
        "subEra": "Run2022B",
        "probe": "generalTracks",
        "dataTier": "MINIAOD",
        "parquet": ["/cms/muon_pog/parquet/muon/Z/Run2022_ReReco_Jun2023/MINIAOD/Run2022B/tnp.parquet"],
        "root": [""],
        "treename": "",
        "luminosity": 0.0963,
        "version": 1
    },
    {
        "particle": "muon",
        "resonance": "Z",
        "era": "Run2022",
        "subEra": "Run2022C",
        "probe": "generalTracks",
        "dataTier": "MINIAOD",
        "parquet": ["/cms/muon_pog/parquet/muon/Z/Run2022_ReReco_Jun2023/MINIAOD/Run2022C/tnp.parquet"],
        "root": [""],
        "treename": "",
        "luminosity": 4.94,
        "version": 1
    },
    {
        "particle": "muon",
        "resonance": "Z",
        "era": "Run2022",
        "subEra": "Run2022D",
        "probe": "generalTracks",
        "dataTier": "MINIAOD",
        "parquet": ["/cms/muon_pog/parquet/muon/Z/Run2022_ReReco_Jun2023/MINIAOD/Run2022D/tnp.parquet"],
        "root": [""],
        "treename": "",
        "luminosity": 2.92,
        "version": 1
    },
    {
        "particle": "muon",
        "resonance": "Z",
        "era": "Run2022",
        "subEra": "DY_madgraph",
        "probe": "generalTracks",
        "dataTier": "MINIAOD",
        "parquet": ["/cms/muon_pog/parquet/muon/Z/Run2022_Jul23/MINIAOD/DY_madgraph/tnp.parquet"],
        "root": [""],
        "treename": "",
        "luminosity": -1,
        "version": 1
    },
    {
        "particle": "muon",
        "resonance": "Z",
        "era": "Run2022",
        "subEra": "DY_amcatnlo",
        "probe": "generalTracks",
        "dataTier": "MINIAOD",
        "parquet": ["/cms/muon_pog/parquet/muon/Z/Run2022_Jul23/MINIAOD/DY_amcatnlo/tnp.parquet"],
        "root": [""],
        "treename": "",
        "luminosity": -1,
        "version": 1
    },
    {
        "particle": "muon",
        "resonance": "Z",
        "era": "Run2022",
        "subEra": "DY_MassBinned",
        "probe": "generalTracks",
        "dataTier": "MINIAOD",
        "parquet": ["/cms/muon_pog/parquet/muon/Z/Run2022_Jul23/MINIAOD/DY_MassBinned/tnp.parquet"],
        "root": [""],
        "treename": "",
        "luminosity": -1,
        "version": 1
    },
    {
        "particle": "muon",
        "resonance": "Z",
        "era": "Run2022_EE",
        "subEra": "Run2022E",
        "probe": "generalTracks",
        "dataTier": "MINIAOD",
        "parquet": ["/cms/muon_pog/parquet/muon/Z/Run2022EE_ReReco_Jun2023/MINIAOD/Run2022E/tnp.parquet"],
        "root": [""],
        "treename": "",
        "luminosity": 5.56,
        "version": 1
    },
    {
        "particle": "muon",
        "resonance": "Z",
        "era": "Run2022_EE",
        "subEra": "Run2022F",
        "probe": "generalTracks",
        "dataTier": "MINIAOD",
        "parquet": ["/cms/muon_pog/parquet/muon/Z/Run2022EE_Jul23/MINIAOD/Run2022F/tnp.parquet"],
        "root": [""],
        "treename": "",
        "luminosity": 17.61,
        "version": 1
    },
    {
        "particle": "muon",
        "resonance": "Z",
        "era": "Run2022_EE",
        "subEra": "Run2022G",
        "probe": "generalTracks",
        "dataTier": "MINIAOD",
        "parquet": ["/cms/muon_pog/parquet/muon/Z/Run2022EE_Jul23/MINIAOD/Run2022G/tnp.parquet"],
        "root": [""],
        "treename": "",
        "luminosity": 3.055,
        "version": 1
    },
    {
        "particle": "muon",
        "resonance": "Z",
        "era": "Run2022_EE",
        "subEra": "DY_madgraph",
        "probe": "generalTracks",
        "dataTier": "MINIAOD",
        "parquet": ["/cms/muon_pog/parquet/muon/Z/Run2022EE_Jul23/MINIAOD/DY_madgraph/tnp.parquet"],
        "root": [""],
        "treename": "",
        "luminosity": -1,
        "version": 1
    },
    {
        "particle": "muon",
        "resonance": "Z",
        "era": "Run2022_EE",
        "subEra": "DY_amcatnlo",
        "probe": "generalTracks",
        "dataTier": "MINIAOD",
        "parquet": ["/cms/muon_pog/parquet/muon/Z/Run2022EE_Jul23/MINIAOD/DY_amcatnlo/tnp.parquet"],
        "root": [""],
        "treename": "",
        "luminosity": -1,
        "version": 1
    },
    {
        "particle": "muon",
        "resonance": "Z",
        "era": "Run2022_EE",
        "subEra": "DY_MassBinned",
        "probe": "generalTracks",
        "dataTier": "MINIAOD",
        "parquet": ["/cms/muon_pog/parquet/muon/Z/Run2022EE_Jul23/MINIAOD/DY_MassBinned/tnp.parquet"],
        "root": [""],
        "treename": "",
        "luminosity": -1,
        "version": 1
    },
    {
        "particle": "muon",
        "resonance": "Z",
        "era": "Run2023",
        "subEra": "Run2023B",
        "probe": "generalTracks",
        "dataTier": "MINIAOD",
        "parquet": ["/cms/muon_pog/parquet/muon/Z/Run2023/MINIAOD/Run2023B/tnp.parquet"],
        "root": [""],
        "treename": "",
        "luminosity": 0.0,
        "version": 1
    },
    {
        "particle": "muon",
        "resonance": "Z",
        "era": "Run2023",
        "subEra": "Run2023C",
        "probe": "generalTracks",
        "dataTier": "MINIAOD",
        "parquet": ["/cms/muon_pog/parquet/muon/Z/Run2023/MINIAOD/Run2023C/tnp.parquet"],
        "root": [""],
        "treename": "",
        "luminosity": 20.0,
        "version": 1
    },
    {
        "particle": "muon",
        "resonance": "Z",
        "era": "Run2023",
        "subEra": "Run2023D",
        "probe": "generalTracks",
        "dataTier": "MINIAOD",
        "parquet": ["/cms/muon_pog/parquet/muon/Z/Run2023_7Aug2023/MINIAOD/Run2023D/tnp.parquet"],
        "root": [""],
        "treename": "",
        "luminosity": 10.0,
        "version": 1
    },
    {
        "particle": "muon",
        "resonance": "Z",
        "era": "Run2023",
        "subEra": "DY_MassBinned",
        "probe": "generalTracks",
        "dataTier": "MINIAOD",
        "parquet": ["/cms/muon_pog/parquet/muon/Z/Run2022_Jul23/MINIAOD/DY_MassBinned/tnp.parquet"],
        "root": [""],
        "treename": "",
        "luminosity": -1,
        "version": 1
    },
    {
        "particle": "muon",
	    "resonance": "Z",
	    "era": "Run2023",
	    "subEra": "DY_madgraph",
	    "probe": "generalTracks",
	    "dataTier": "MINIAOD",
	    "parquet": ["/cms/muon_pog/parquet/muon/Z/Run2023/MINIAOD/DY_madgraph/tnp.parquet"],
	    "root": [""],
	    "treename": "",
	    "luminosity": -1,
	    "version": 1
    },
    {
        "particle": "muon",
	    "resonance": "Z",
	    "era": "Run2023",
	    "subEra": "DY_amcatnlo",
	    "probe": "generalTracks",
	    "dataTier": "MINIAOD",
	    "parquet": ["/cms/muon_pog/parquet/muon/Z/Run2023/MINIAOD/DY_amcatnlo/tnp.parquet"], 
	    "root": [""],
	    "treename": "",
	    "luminosity": -1,
	    "version": 1
    }

]
